^C:\USERS\CMILDENBERGER\DOCUMENTS\AGATESTER\AGATESTER\FORM1.RESX|C:\USERS\CMILDENBERGER\DOCUMENTS\AGATESTER\AGATESTER\PROPERTIES\RESOURCES.RESX
C:\USERS\CMILDENBERGER\DOCUMENTS\AGATESTER\AGATESTER\OBJ\X86\DEBUG\AGATESTER.FORM1.RESOURCES
C:\USERS\CMILDENBERGER\DOCUMENTS\AGATESTER\AGATESTER\OBJ\X86\DEBUG\AGATESTER.PROPERTIES.RESOURCES.RESOURCES
^C:\USERS\CMILDENBERGER.ENERGUYS\DOCUMENTS\AGATESTER\AGATESTER\FORM1.RESX|C:\USERS\CMILDENBERGER.ENERGUYS\DOCUMENTS\AGATESTER\AGATESTER\PROPERTIES\RESOURCES.RESX
C:\USERS\CMILDENBERGER.ENERGUYS\DOCUMENTS\AGATESTER\AGATESTER\OBJ\X86\DEBUG\AGATESTER.FORM1.RESOURCES
C:\USERS\CMILDENBERGER.ENERGUYS\DOCUMENTS\AGATESTER\AGATESTER\OBJ\X86\DEBUG\AGATESTER.PROPERTIES.RESOURCES.RESOURCES
